#FIG 3.2  Produced by xfig version 3.2.6a
Landscape
Center
Metric
A4
100.00
Single
-2
1200 2
2 2 0 1 0 0 52 -1 20 0.000 0 0 -1 0 0 5
	 495 495 4095 495 4095 675 495 675 495 495
2 2 0 1 0 0 52 -1 20 0.000 0 0 -1 0 0 5
	 495 945 4095 945 4095 1125 495 1125 495 945
2 2 0 1 0 0 52 -1 20 0.000 0 0 -1 0 0 5
	 495 1395 4095 1395 4095 1575 495 1575 495 1395
2 2 0 1 0 0 52 -1 20 0.000 0 0 -1 0 0 5
	 495 1845 4095 1845 4095 2025 495 2025 495 1845
2 2 0 1 0 0 52 -1 20 0.000 0 0 -1 0 0 5
	 495 2295 4095 2295 4095 2475 495 2475 495 2295
2 1 0 1 0 7 48 -1 -1 0.000 0 0 -1 0 0 2
	 2700 900 2700 1080
2 1 0 1 0 7 48 -1 -1 0.000 0 0 -1 0 0 2
	 2160 2250 2160 2430
2 1 0 1 0 7 48 -1 -1 0.000 0 0 -1 0 0 2
	 2250 2250 2250 2430
2 1 0 1 0 7 48 -1 -1 0.000 0 0 -1 0 0 2
	 3960 2250 3960 2430
2 1 0 1 0 7 48 -1 -1 0.000 0 0 -1 0 0 2
	 540 2250 540 2430
2 1 0 1 0 7 48 -1 -1 0.000 0 0 -1 0 0 2
	 3825 450 3825 630
2 1 0 1 0 7 48 -1 -1 0.000 0 0 -1 0 0 2
	 3735 450 3735 630
2 2 0 1 0 11 51 -1 27 0.000 0 0 7 0 0 5
	 4050 450 450 450 450 630 4050 630 4050 450
2 2 0 1 0 11 51 -1 27 0.000 0 0 7 0 0 5
	 4050 900 450 900 450 1080 4050 1080 4050 900
2 2 0 1 0 11 51 -1 27 0.000 0 0 7 0 0 5
	 4050 1350 450 1350 450 1530 4050 1530 4050 1350
2 2 0 1 0 11 51 -1 27 0.000 0 0 7 0 0 5
	 4050 1800 450 1800 450 1980 4050 1980 4050 1800
2 2 0 1 0 11 51 -1 27 0.000 0 0 7 0 0 5
	 4050 2250 450 2250 450 2430 4050 2430 4050 2250
2 2 0 1 0 11 49 -1 36 0.000 0 0 7 0 0 5
	 450 450 3735 450 3735 630 450 630 450 450
2 2 0 1 0 11 49 -1 36 0.000 0 0 7 0 0 5
	 3825 450 4050 450 4050 630 3825 630 3825 450
2 2 0 1 0 11 49 -1 36 0.000 0 0 7 0 0 5
	 2700 900 4050 900 4050 1080 2700 1080 2700 900
2 2 0 1 0 11 49 -1 36 0.000 0 0 7 0 0 5
	 450 1800 4050 1800 4050 1980 450 1980 450 1800
2 2 0 1 0 11 49 -1 36 0.000 0 0 7 0 0 5
	 2250 2250 3960 2250 3960 2430 2250 2430 2250 2250
2 2 0 1 0 11 49 -1 36 0.000 0 0 7 0 0 5
	 540 2250 2160 2250 2160 2430 540 2430 540 2250
4 1 0 48 -1 16 6 0.0000 4 75 60 4005 405 0\001
4 0 0 48 -1 16 8 0.0000 4 105 285 4140 585 CR4\001
4 1 0 48 -1 16 6 0.0000 4 105 1005 1575 1215 Page-Directory Base\001
4 1 0 48 -1 16 6 0.0000 4 105 1290 2250 1665 Page-Fault Linear Address\001
4 0 0 48 -1 16 8 0.0000 4 105 285 4140 2385 CR0\001
4 0 0 48 -1 16 8 0.0000 4 105 285 4140 1935 CR1\001
4 0 0 48 -1 16 8 0.0000 4 105 285 4140 1035 CR3\001
4 0 0 48 -1 16 8 0.0000 4 105 285 4140 1485 CR2\001
4 1 0 48 -1 16 6 0.0000 4 75 150 4005 2565 PE\001
4 1 0 48 -1 16 6 0.0000 4 75 180 2205 2565 WP\001
4 1 0 48 -1 16 6 0.0000 4 75 165 495 2565 PG\001
4 1 0 48 -1 16 6 0.0000 4 75 120 495 405 31\001
4 1 0 48 -1 16 6 0.0000 4 75 225 3780 765 PSE\001
4 1 0 48 -1 16 6 0.0000 4 75 60 3780 405 4\001
4 1 0 48 -1 16 6 0.0000 4 75 120 495 2205 31\001
4 1 0 48 -1 16 6 0.0000 4 75 60 4005 2205 0\001
4 1 0 48 -1 16 6 0.0000 4 75 120 2205 2205 16\001
4 1 0 48 -1 16 6 0.0000 4 75 120 495 855 31\001
4 1 0 48 -1 16 6 0.0000 4 75 120 2655 855 12\001
4 1 0 48 -1 16 6 0.0000 4 75 120 495 1305 31\001
4 1 0 48 -1 16 6 0.0000 4 75 60 4005 1305 0\001
